{
  "project_info": {
    "project_number": "397315309805",
    "firebase_url": "https://pia8-34a09.firebaseio.com",
    "project_id": "pia8-34a09",
    "storage_bucket": "pia8-34a09.appspot.com"
  },
  "client": [
    {
      "client_info": {
        "mobilesdk_app_id": "1:397315309805:android:509881bd57707f74",
        "android_client_info": {
          "package_name": "se.magictechnology.pia8androidv3tis"
        }
      },
      "oauth_client": [
        {
          "client_id": "397315309805-4thlqrpmb1r0t73tu46i9squ7n7q7g9g.apps.googleusercontent.com",
          "client_type": 1,
          "android_info": {
            "package_name": "se.magictechnology.pia8androidv3tis",
            "certificate_hash": "b19b49e4f8a2cd041772501c2d1767a6dc933c09"
          }
        },
        {
          "client_id": "397315309805-c4v5851hqh73s0o6aqq0jpm86etj8sb4.apps.googleusercontent.com",
          "client_type": 3
        }
      ],
      "api_key": [
        {
          "current_key": "AIzaSyDRjGwEi_UsytutnNWF46_SJnJCXi9SP2k"
        }
      ],
      "services": {
        "analytics_service": {
          "status": 1
        },
        "appinvite_service": {
          "status": 2,
          "other_platform_oauth_client": [
            {
              "client_id": "397315309805-c4v5851hqh73s0o6aqq0jpm86etj8sb4.apps.googleusercontent.com",
              "client_type": 3
            },
            {
              "client_id": "397315309805-mesd1ggto6j184ku032kfs3m3ql85blc.apps.googleusercontent.com",
              "client_type": 2,
              "ios_info": {
                "bundle_id": "se.magictechnology.PIA8TODOAPP"
              }
            }
          ]
        },
        "ads_service": {
          "status": 2
        }
      }
    },
    {
      "client_info": {
        "mobilesdk_app_id": "1:397315309805:android:056c136438d85698",
        "android_client_info": {
          "package_name": "se.magictechnology.pia8androidv4tors"
        }
      },
      "oauth_client": [
        {
          "client_id": "397315309805-rh157btqq36ckqd2j3smdamknt20r5ap.apps.googleusercontent.com",
          "client_type": 1,
          "android_info": {
            "package_name": "se.magictechnology.pia8androidv4tors",
            "certificate_hash": "b19b49e4f8a2cd041772501c2d1767a6dc933c09"
          }
        },
        {
          "client_id": "397315309805-c4v5851hqh73s0o6aqq0jpm86etj8sb4.apps.googleusercontent.com",
          "client_type": 3
        }
      ],
      "api_key": [
        {
          "current_key": "AIzaSyDRjGwEi_UsytutnNWF46_SJnJCXi9SP2k"
        }
      ],
      "services": {
        "analytics_service": {
          "status": 1
        },
        "appinvite_service": {
          "status": 2,
          "other_platform_oauth_client": [
            {
              "client_id": "397315309805-c4v5851hqh73s0o6aqq0jpm86etj8sb4.apps.googleusercontent.com",
              "client_type": 3
            },
            {
              "client_id": "397315309805-mesd1ggto6j184ku032kfs3m3ql85blc.apps.googleusercontent.com",
              "client_type": 2,
              "ios_info": {
                "bundle_id": "se.magictechnology.PIA8TODOAPP"
              }
            }
          ]
        },
        "ads_service": {
          "status": 2
        }
      }
    },
    {
      "client_info": {
        "mobilesdk_app_id": "1:397315309805:android:0197c037b3ff90e2",
        "android_client_info": {
          "package_name": "se.magictechnology.pia8todo"
        }
      },
      "oauth_client": [
        {
          "client_id": "397315309805-3gtci8bsimc4g4m7rds4t46ohha947vs.apps.googleusercontent.com",
          "client_type": 1,
          "android_info": {
            "package_name": "se.magictechnology.pia8todo",
            "certificate_hash": "b19b49e4f8a2cd041772501c2d1767a6dc933c09"
          }
        },
        {
          "client_id": "397315309805-c4v5851hqh73s0o6aqq0jpm86etj8sb4.apps.googleusercontent.com",
          "client_type": 3
        }
      ],
      "api_key": [
        {
          "current_key": "AIzaSyDRjGwEi_UsytutnNWF46_SJnJCXi9SP2k"
        }
      ],
      "services": {
        "analytics_service": {
          "status": 1
        },
        "appinvite_service": {
          "status": 2,
          "other_platform_oauth_client": [
            {
              "client_id": "397315309805-c4v5851hqh73s0o6aqq0jpm86etj8sb4.apps.googleusercontent.com",
              "client_type": 3
            },
            {
              "client_id": "397315309805-mesd1ggto6j184ku032kfs3m3ql85blc.apps.googleusercontent.com",
              "client_type": 2,
              "ios_info": {
                "bundle_id": "se.magictechnology.PIA8TODOAPP"
              }
            }
          ]
        },
        "ads_service": {
          "status": 2
        }
      }
    }
  ],
  "configuration_version": "1"
}